at epoch 0 train info: auc:0.811148173061, mean_squared_error:0.182373 eval info: NULL
at epoch 0 , train time: 15.4 eval time: 3.8
at epoch 1 train info: auc:0.848819075013, mean_squared_error:0.161467 eval info: NULL
at epoch 1 , train time: 15.5 eval time: 3.7
